{
	"tracker": {
		"host"    : "127.0.0.1",
		"user"    : "root",
		"password": "",
		"database": "welpserv_xeno",
		"commit_interval" : 10
	},

	"http": {
		"host"    : "127.0.0.1",
		"port"    : 8080
	}
}